…
``` r
print(df2)
```

    ## Source: local data frame [120 x 4]
    ## Groups: ID, Group [40]
    ## 
    ##       ID     Group           One   Two
    ##    <int>    <fctr>         <chr> <int>
    ## 1      1 Analgesic Measurement_1    26
    ## 2      2 Analgesic Measurement_1    29
    ## 3      3 Analgesic Measurement_1    24
    ## 4      4 Analgesic Measurement_1    25
    ## 5      5 Analgesic Measurement_1    24
    ## 6      6 Analgesic Measurement_1    22
    ## 7      7 Analgesic Measurement_1    25
    ## 8      8 Analgesic Measurement_1    28
    ## 9      9 Analgesic Measurement_1    22
    ## 10    10 Analgesic Measurement_1    18
    ## # ... with 110 more rows

``` r
print(df3)
```

    ## Source: local data frame [40 x 3]
    ## Groups: ID [?]
    ## 
    ##       ID     Group mean(Two)
    ##    <int>    <fctr>     <dbl>
    ## 1      1 Analgesic  24.33333
    ## 2      2 Analgesic  26.00000
    ## 3      3 Analgesic  24.66667
    ## 4      4 Analgesic  23.66667
    ## 5      5 Analgesic  25.00000
    ## 6      6 Analgesic  23.66667
    ## 7      7 Analgesic  26.66667
    ## 8      8 Analgesic  23.33333
    ## 9      9 Analgesic  22.66667
    ## 10    10 Analgesic  24.00000
    ## # ... with 30 more rows
…
